module tanda-time

go 1.21

require (
	github.com/basgys/goxml2json v1.1.0
	github.com/samber/lo v1.47.0
)

require (
	github.com/bitly/go-simplejson v0.5.1 // indirect
	github.com/stretchr/testify v1.9.0 // indirect
	golang.org/x/net v0.28.0 // indirect
	golang.org/x/text v0.17.0 // indirect
)
