module audionormalizer

go 1.21.3

require (
	github.com/samber/lo v1.47.0
	github.com/spf13/pflag v1.0.5
	github.com/stretchr/testify v1.10.0
)

require (
	github.com/davecgh/go-spew v1.1.1 // indirect
	github.com/pmezard/go-difflib v1.0.0 // indirect
	golang.org/x/text v0.16.0 // indirect
	gopkg.in/yaml.v3 v3.0.1 // indirect
)
